{
    "SPLIT":[
	    {
	    	"id":["fee5399060d446008fe91d42d6527d67"],
	    	"name":["主系统队队长","电仪队队长","管焊队队长","机通队队长"],
	    	"menus":[
	    		"/construction/captain",
	    		"/construction/captain/release"
	    		
				,"/hd/workstep/question/detail"
				,"/hd/workstep/question/assgin"
				,"/hd/workstep/question"
				,"/hd/workstep/question/handle","/hd/quality/view"
	    	]
		},
	    {
	    	"id":["fee5399060d446008fe91d42d6527d67"],
	    	"name":["班长"],
	    	"menus":[
	    		"/construction/monitor/assign",
				"/construction/monitor/assigned",
				"/construction/monitor/modify",
				"/construction/monitor/release"
				
				,"/hd/quality/renovateResult","/hd/quality/view"
	    	]
		},
		{
	    	"id":["fee5399060d446008fe91d42d6527d67"],
	    	"name":["组长"],
	    	"menus":[
	    		"/witness/mylaunch",
	    		"/witness/mylaunch/view"
				,"/hd/workstep/question"
				,"/hd/workstep/question/detail"
				,"/hd/quality/renovateResult","/hd/quality/view"
	    	]
		},
		{
	    	"id":["fee5399060d446008fe91d42d6527d67"],
	    	"name":["QC1见证组长","QC2见证组长"],
	    	"menus":[
	    		"/witness/witnesser",
	    		"/witness/witnesser/assign",
				"/witness/witnesser/batch_assign",
				"/witness/witnesser/already"
				,"/hd/quality","/hd/quality/report","/hd/quality/view"
				,"/hd/quality/qcFinish","/hd/quality/qcConfirm","/hd/quality/qcClose"
	    	]
		},
		{
	    	"id":["fee5399060d446008fe91d42d6527d67"],
	    	"name":["QC1见证组员","CZEC QC","CZEC QA","PAEC"],
	    	"menus":[
	    		"/witness/myevent",
				"/witness/myevent/already",
				"/witness/myevent/launch",
				"/witness/myevent/launch/view",
				"/witness/myevent/launch/edit"
				,"/hd/quality","/hd/quality/report","/hd/quality/view"
				,"/hd/quality/qcFinish","/hd/quality/qcConfirm","/hd/quality/qcClose"
	    	]
		},
		{
	    	"id":["fee5399060d446008fe91d42d6527d67"],
	    	"name":["QC2见证组员"],
	    	"menus":[
	    		"/witness/witnesser",
	    		"/witness/witnesser/assign",
				"/witness/witnesser/batch_assign",
	    		"/witness/myevent",
				"/witness/myevent/already",
				"/witness/myevent/launch",
				"/witness/myevent/launch/view",
				"/witness/myevent/launch/edit"
				,"/hd/quality","/hd/quality/report","/hd/quality/view"
				,"/hd/quality/qcFinish","/hd/quality/qcConfirm","/hd/quality/qcClose"
	    	]
		},
	    {
	    	"id":["fee5399060d446008fe91d42d6527d67"],
	    	"name":["QC专业室主任"],
	    	"menus":[
				"/hd/quality","/hd/quality/report","/hd/quality/view"
				,"/hd/quality/qcLeaderAssign"
	    	]
		},
	    {
	    	"id":["fee5399060d446008fe91d42d6527d67"],
	    	"name":["质量管理"],
	    	"menus":[
				"/hd/quality","/hd/quality/report","/hd/quality/view"
				,"/hd/quality/qcFinish","/hd/quality/qcConfirm","/hd/quality/qcClose"
	    	]
		},
	    {	"_comment":"作业问题相关的岗位权限设置的配置:班长、综合管理 =分派＋可直接处理",
	    	"id":["fee5399060d446008fe91d42d6527d67"],
	    	"name":["班长","综合管理"],
	    	"menus":[
				"/hd/workstep/question/detail"
				,"/hd/workstep/question/assgin"
				,"/hd/workstep/question"
				,"/hd/workstep/question/handle"
	    	]
		},
	    {	"_comment":"作业问题相关的岗位权限设置的配置:技术人员+技术领导　处理＋不能解决  ",
	    	"id":["fee5399060d446008fe91d42d6527d67"],
	    	"name":['通防技术员','仪表技术员','机械技术员','电气技术员','通风技术员','保温技术员','机械技术见习生','管道技术见习生'
	    	,'管道工程师','焊接工程师','管道主任工程师','电气主任工程师','仪表主任工程师','焊接主任工程师','管道主管工程师','机械主任工程师','通防主任工程师','保温主管工程师','通风专业工程师','主系统专业工程师','技术部经理','技术经理'],
	    	"menus":[
				"/hd/workstep/question/detail"
				,"/hd/workstep/question/unable"
				,"/hd/workstep/question"
				,"/hd/workstep/question/handle"
	    	]
		},
	    {	"_comment":"作业问题相关的岗位权限设置的配置:技术领导 可改派  ",
	    	"id":["fee5399060d446008fe91d42d6527d67"],
	    	"name":['管道工程师','焊接工程师','管道主任工程师','电气主任工程师','仪表主任工程师','焊接主任工程师','管道主管工程师','机械主任工程师','通防主任工程师','保温主管工程师','通风专业工程师','主系统专业工程师'],
	    	"menus":[
				"/hd/workstep/question/assgin"
	    	]
		},
	    {	"_comment":"作业问题相关的岗位权限设置的配置:项目部总经理1　处理",
	    	"id":["fee5399060d446008fe91d42d6527d67"],
	    	"name":['项目部总经理1'],
	    	"menus":[
				"/hd/workstep/question/detail"
				,"/hd/workstep/question"
				,"/hd/workstep/question/handle"
	    	]
		},
	    {	"_comment":"文明施工　安全管理",
	    	"id":["fee5399060d446008fe91d42d6527d67"],
	    	"name":['安全管理'],
	    	"menus":[
				"/hd/hseproblem/verify","/hd/hseproblem/check","/hd/hseproblem/close",
	    	]
		}
		
		
    ],
    "ALL":[
    	"/baseservice/conference",
		"/baseservice/conference/add",
		"/baseservice/conference/edit",
		"/baseservice/conference/delete",
		"/baseservice/conference/view",
		"/baseservice/notification",
		"/baseservice/notification/add",
		"/baseservice/notification/edit",
		"/baseservice/notification/delete",
		"/baseservice/notification/view",
		"/baseservice/expire_notice",
		"/baseservice/expire_notice/view"
		,"/hd/quality/add","/hd/quality","/hd/quality/responsibilityLeaderAssign","/hd/quality/view"
		,"/hd/hseproblem/add","/hd/hseproblem","/hd/hseproblem/view","/hd/hseproblem/renovate","/hd/hseproblem/returnToEditor"
		,"/hd/hseproblem/a_verify"
    ]
}
